<?xml version="1.0" encoding="UTF-8"?>
<!DOCTYPE svg PUBLIC "-//W3C//DTD SVG 1.1//EN" "http://www.w3.org/Graphics/SVG/1.1/DTD/svg11.dtd">
<!-- Creator: CorelDRAW X7 -->
<svg xmlns="http://www.w3.org/2000/svg" xml:space="preserve" width="81px" height="84px" version="1.1" style="shape-rendering:geometricPrecision; text-rendering:geometricPrecision; image-rendering:optimizeQuality; fill-rule:evenodd; clip-rule:evenodd"
viewBox="0 0 151 157"
 xmlns:xlink="http://www.w3.org/1999/xlink">
 <defs>
  <style type="text/css">
   <![CDATA[
    .str0 {stroke:#2B2A29;stroke-width:5.57644;stroke-linecap:round;stroke-linejoin:round}
    .fil0 {fill:none}
   ]]>
  </style>
 </defs>
 <g id="Слой_x0020_1">
  <metadata id="CorelCorpID_0Corel-Layer"/>
  <path class="fil0 str0" d="M69 90l-32 32 -1 11 -19 10 -9 -9 10 -19 10 -2 32 -32m15 -14l6 -6 -8 -9c16,-7 22,-14 28,-32l13 -13c16,-16 45,13 29,29l-13 13c-17,7 -24,13 -32,29l-8 -8 -6 6"/>
  <path class="fil0 str0" d="M97 118l-58 -59c-10,4 -21,2 -29,-5 -7,-8 -9,-19 -5,-28l16 16c1,1 4,1 5,0l9 -9c2,-2 2,-4 0,-6l-16 -16c9,-4 21,-2 28,6 8,8 10,19 6,28l59 59c9,-4 20,-2 28,6 7,7 9,18 6,28l-17 -17c-1,-1 -3,-1 -5,0l-9 10c-2,1 -2,3 0,5l16 16c-9,4 -20,2 -28,-6 -8,-7 -9,-18 -6,-28z"/>
 </g>
</svg>
