<?xml version="1.0" encoding="UTF-8"?>
<!DOCTYPE svg PUBLIC "-//W3C//DTD SVG 1.1//EN" "http://www.w3.org/Graphics/SVG/1.1/DTD/svg11.dtd">
<!-- Creator: CorelDRAW X7 -->
<svg xmlns="http://www.w3.org/2000/svg" xml:space="preserve" width="57px" height="63px" version="1.1" style="shape-rendering:geometricPrecision; text-rendering:geometricPrecision; image-rendering:optimizeQuality; fill-rule:evenodd; clip-rule:evenodd"
viewBox="0 0 18071 19899"
 xmlns:xlink="http://www.w3.org/1999/xlink">
 <defs>
  <style type="text/css">
   <![CDATA[
    .str1 {stroke:#FEFEFE;stroke-width:634.122}
    .str0 {stroke:#FEFEFE;stroke-width:634.122;stroke-linecap:round;stroke-linejoin:round}
    .fil0 {fill:none}
   ]]>
  </style>
 </defs>
 <g id="Слой_x0020_1">
  <metadata id="CorelCorpID_0Corel-Layer"/>
  <polyline class="fil0 str0" points="317,16311 6025,12189 9830,13775 17440,457 "/>
  <path class="fil0 str0" d="M17439 3767l0 15814m-17122 -1273l0 1273m2854 -3334l0 3334m2854 -5394l0 5394m2853 -4017l0 4017m2854 -5826l0 5826m2854 -10820l0 10820"/>
  <polyline class="fil0 str1" points="15378,1349 17440,457 17757,2776 "/>
 </g>
</svg>
