<?xml version="1.0" encoding="UTF-8"?>
<!DOCTYPE svg PUBLIC "-//W3C//DTD SVG 1.1//EN" "http://www.w3.org/Graphics/SVG/1.1/DTD/svg11.dtd">
<!-- Creator: CorelDRAW X7 -->
<svg xmlns="http://www.w3.org/2000/svg" xml:space="preserve" width="66px" height="60px" version="1.1" style="shape-rendering:geometricPrecision; text-rendering:geometricPrecision; image-rendering:optimizeQuality; fill-rule:evenodd; clip-rule:evenodd"
viewBox="0 0 6427 5880"
 xmlns:xlink="http://www.w3.org/1999/xlink">
 <defs>
  <style type="text/css">
   <![CDATA[
    .str0 {stroke:#FEFEFE;stroke-width:195.144;stroke-linecap:round;stroke-linejoin:round}
    .fil0 {fill:none}
   ]]>
  </style>
 </defs>
 <g id="Слой_x0020_1">
  <metadata id="CorelCorpID_0Corel-Layer"/>
  <polyline class="fil0 str0" points="3929,1427 4594,3063 3214,5773 1833,3063 2498,1427 "/>
  <polygon class="fil0 str0" points="4032,98 4032,1120 4185,1120 4185,1376 2242,1376 2242,1120 2396,1120 2396,98 "/>
  <line class="fil0 str0" x1="3214" y1="5773" x2="3214" y2= "3319" />
  <circle class="fil0 str0" cx="3214" cy="3012" r="307"/>
  <path class="fil0 str0" d="M98 4741c699,631 1834,1041 3116,1041 1281,0 2416,-410 3116,-1041"/>
 </g>
</svg>
