<?xml version="1.0" encoding="UTF-8"?>
<!DOCTYPE svg PUBLIC "-//W3C//DTD SVG 1.1//EN" "http://www.w3.org/Graphics/SVG/1.1/DTD/svg11.dtd">
<!-- Creator: CorelDRAW X7 -->
<svg xmlns="http://www.w3.org/2000/svg" xml:space="preserve" width="123px" height="117px" version="1.1" style="shape-rendering:geometricPrecision; text-rendering:geometricPrecision; image-rendering:optimizeQuality; fill-rule:evenodd; clip-rule:evenodd"
viewBox="0 0 13155 12526"
 xmlns:xlink="http://www.w3.org/1999/xlink">
 <defs>
  <style type="text/css">
   <![CDATA[
    .str0 {stroke:black;stroke-width:213.641;stroke-linecap:round;stroke-linejoin:round}
    .fil0 {fill:none}
    .fil1 {fill:#FFDD30}
   ]]>
  </style>
 </defs>
 <g id="Слой_x0020_1">
  <metadata id="CorelCorpID_0Corel-Layer"/>
  <path class="fil0 str0" d="M1120 12297l1707 0c89,0 162,-73 162,-162l0 -1759c0,-89 -73,-162 -162,-162l-1707 0c-89,0 -162,73 -162,162l0 1759c0,89 73,162 162,162zm9294 -5822c-89,0 -162,73 -162,162l0 5620c0,89 73,162 162,162l1707 0c89,0 162,-73 162,-162l0 -5620c0,-89 -73,-162 -162,-162l-1707 0m-3098 5944l1707 0c89,0 162,-73 162,-162l0 -3702c0,-90 -73,-163 -162,-163l-1707 0c-89,0 -162,73 -162,163l0 3702c0,89 73,162 162,162zm-3098 -61l1707 0c89,0 162,-73 162,-162l0 -2461c0,-89 -73,-162 -162,-162l-1707 0c-89,0 -162,73 -162,162l0 2461c0,89 73,162 162,162z"/>
  <path class="fil1" d="M107 9593c4641,-324 8343,-1842 11622,-6233l1122 521c155,-57 235,-230 179,-385l-1169 -3193c-57,-154 -230,-235 -385,-178l-3192 1169c-155,56 -236,230 -179,384l1140 529c-902,2660 -3786,6719 -9138,7026l0 360z"/>
  <path class="fil0 str0" d="M107 9593c4641,-324 8343,-1842 11622,-6233l1122 521c155,-57 235,-230 179,-385l-1169 -3193c-57,-154 -230,-235 -385,-178l-3192 1169c-155,56 -236,230 -179,384l1140 529c-902,2660 -3786,6719 -9138,7026l0 360z"/>
 </g>
</svg>
