<?xml version="1.0" encoding="UTF-8"?>
<!DOCTYPE svg PUBLIC "-//W3C//DTD SVG 1.1//EN" "http://www.w3.org/Graphics/SVG/1.1/DTD/svg11.dtd">
<!-- Creator: CorelDRAW X7 -->
<svg xmlns="http://www.w3.org/2000/svg" xml:space="preserve" width="140px" height="126px" version="1.1" style="shape-rendering:geometricPrecision; text-rendering:geometricPrecision; image-rendering:optimizeQuality; fill-rule:evenodd; clip-rule:evenodd"
viewBox="0 0 28611 25740"
 xmlns:xlink="http://www.w3.org/1999/xlink">
 <defs>
  <style type="text/css">
   <![CDATA[
    .str0 {stroke:#2B2A29;stroke-width:537.61;stroke-linecap:round;stroke-linejoin:round}
    .fil1 {fill:none}
    .fil0 {fill:#FFDD30}
   ]]>
  </style>
 </defs>
 <g id="Слой_x0020_1">
  <metadata id="CorelCorpID_0Corel-Layer"/>
  <polygon class="fil0" points="8145,3025 12870,13264 23897,13264 27965,4503 28342,3420 27976,3093 27101,3029 "/>
  <path class="fil1 str0" d="M24684 19171l-14177 0c-1515,0 -2756,-1240 -2756,-2757l0 0c0,-1516 1240,-2756 2756,-2756l13390 0 4068 -9155c657,-1478 657,-1478 -1664,-1478l-18156 0m-7876 -2756l1914 0c1236,0 1381,236 1826,1113l6498 12276m11836 -3150l-10809 0m11859 -2362l-13066 0m14116 -2364l-15342 0m1406 14964c1305,0 2363,1058 2363,2363 0,1305 -1058,2363 -2363,2363 -1304,0 -2362,-1058 -2362,-2363 0,-1305 1058,-2363 2362,-2363zm12602 0c1305,0 2363,1058 2363,2363 0,1305 -1058,2363 -2363,2363 -1305,0 -2363,-1058 -2363,-2363 0,-1305 1058,-2363 2363,-2363z"/>
 </g>
</svg>
